---
http_interactions:
- request:
    method: get
    uri: https://api.spotify.com/v1/artists/1aSxMhuvixZ8h9dK9jIDwL/albums?include_groups=album&limit=5&offset=5
    body:
      encoding: US-ASCII
      string: ''
    headers:
      Accept:
      - "*/*"
      User-Agent:
      - rest-client/2.1.0 (linux x86_64) ruby/3.0.1p64
      Authorization:
      - Bearer <SPOTIFY_TOKEN>
      Accept-Encoding:
      - gzip;q=1.0,deflate;q=0.6,identity;q=0.3
      Host:
      - api.spotify.com
  response:
    status:
      code: 200
      message: OK
    headers:
      Content-Type:
      - application/json; charset=utf-8
      Cache-Control:
      - public, max-age=72367
      X-Robots-Tag:
      - noindex, nofollow
      Access-Control-Allow-Origin:
      - "*"
      Access-Control-Allow-Headers:
      - Accept, App-Platform, Authorization, Content-Type, Origin, Retry-After, Spotify-App-Version,
        X-Cloud-Trace-Context, client-token, content-access-token
      Access-Control-Allow-Methods:
      - GET, POST, OPTIONS, PUT, DELETE, PATCH
      Access-Control-Allow-Credentials:
      - 'true'
      Access-Control-Max-Age:
      - '604800'
      Strict-Transport-Security:
      - max-age=31536000
      X-Content-Type-Options:
      - nosniff
      Date:
      - Wed, 14 Jul 2021 10:44:45 GMT
      Server:
      - envoy
      Via:
      - HTTP/2 edgeproxy, 1.1 google
      Alt-Svc:
      - clear
      Transfer-Encoding:
      - chunked
    body:
      encoding: ASCII-8BIT
      string: |-
        {
          "href" : "https://api.spotify.com/v1/artists/1aSxMhuvixZ8h9dK9jIDwL/albums?offset=5&limit=5&include_groups=album",
          "items" : [ {
            "album_group" : "album",
            "album_type" : "album",
            "artists" : [ {
              "external_urls" : {
                "spotify" : "https://open.spotify.com/artist/1aSxMhuvixZ8h9dK9jIDwL"
              },
              "href" : "https://api.spotify.com/v1/artists/1aSxMhuvixZ8h9dK9jIDwL",
              "id" : "1aSxMhuvixZ8h9dK9jIDwL",
              "name" : "Kate Bush",
              "type" : "artist",
              "uri" : "spotify:artist:1aSxMhuvixZ8h9dK9jIDwL"
            } ],
            "available_markets" : [ "AD", "AE", "AG", "AL", "AM", "AO", "AR", "AT", "AU", "AZ", "BA", "BB", "BD", "BE", "BF", "BG", "BH", "BI", "BJ", "BN", "BO", "BR", "BS", "BT", "BW", "BY", "BZ", "CA", "CH", "CI", "CL", "CM", "CO", "CR", "CV", "CW", "CY", "CZ", "DE", "DJ", "DK", "DM", "DO", "DZ", "EC", "EE", "EG", "ES", "FI", "FJ", "FM", "FR", "GA", "GB", "GD", "GE", "GH", "GM", "GN", "GQ", "GR", "GT", "GW", "GY", "HK", "HN", "HR", "HT", "HU", "ID", "IE", "IL", "IN", "IS", "IT", "JM", "JO", "JP", "KE", "KG", "KH", "KI", "KM", "KN", "KR", "KW", "KZ", "LA", "LB", "LC", "LI", "LK", "LR", "LS", "LT", "LU", "LV", "MA", "MC", "MD", "ME", "MG", "MH", "MK", "ML", "MN", "MO", "MR", "MT", "MU", "MV", "MW", "MX", "MY", "MZ", "NA", "NE", "NG", "NI", "NL", "NO", "NP", "NR", "NZ", "OM", "PA", "PE", "PG", "PH", "PK", "PL", "PS", "PT", "PW", "PY", "QA", "RO", "RS", "RU", "RW", "SA", "SB", "SC", "SE", "SG", "SI", "SK", "SL", "SM", "SN", "SR", "ST", "SV", "SZ", "TD", "TG", "TH", "TL", "TN", "TO", "TR", "TT", "TV", "TW", "TZ", "UA", "UG", "UY", "UZ", "VC", "VN", "VU", "WS", "XK", "ZA", "ZM", "ZW" ],
            "external_urls" : {
              "spotify" : "https://open.spotify.com/album/2mOtRzRf4igdjKs1UzUWFr"
            },
            "href" : "https://api.spotify.com/v1/albums/2mOtRzRf4igdjKs1UzUWFr",
            "id" : "2mOtRzRf4igdjKs1UzUWFr",
            "images" : [ {
              "height" : 640,
              "url" : "https://i.scdn.co/image/ab67616d0000b2734f97d4bf55d152cff4e52d28",
              "width" : 640
            }, {
              "height" : 300,
              "url" : "https://i.scdn.co/image/ab67616d00001e024f97d4bf55d152cff4e52d28",
              "width" : 300
            }, {
              "height" : 64,
              "url" : "https://i.scdn.co/image/ab67616d000048514f97d4bf55d152cff4e52d28",
              "width" : 64
            } ],
            "name" : "50 Words for Snow (2018 Remaster)",
            "release_date" : "2011-11-21",
            "release_date_precision" : "day",
            "total_tracks" : 7,
            "type" : "album",
            "uri" : "spotify:album:2mOtRzRf4igdjKs1UzUWFr"
          }, {
            "album_group" : "album",
            "album_type" : "album",
            "artists" : [ {
              "external_urls" : {
                "spotify" : "https://open.spotify.com/artist/1aSxMhuvixZ8h9dK9jIDwL"
              },
              "href" : "https://api.spotify.com/v1/artists/1aSxMhuvixZ8h9dK9jIDwL",
              "id" : "1aSxMhuvixZ8h9dK9jIDwL",
              "name" : "Kate Bush",
              "type" : "artist",
              "uri" : "spotify:artist:1aSxMhuvixZ8h9dK9jIDwL"
            } ],
            "available_markets" : [ "AD", "AE", "AG", "AL", "AM", "AO", "AR", "AT", "AU", "AZ", "BA", "BB", "BD", "BE", "BF", "BG", "BH", "BI", "BJ", "BN", "BO", "BR", "BS", "BT", "BW", "BY", "BZ", "CA", "CH", "CI", "CL", "CM", "CO", "CR", "CV", "CW", "CY", "CZ", "DE", "DJ", "DK", "DM", "DO", "DZ", "EC", "EE", "EG", "ES", "FI", "FJ", "FM", "FR", "GA", "GB", "GD", "GE", "GH", "GM", "GN", "GQ", "GR", "GT", "GW", "GY", "HK", "HN", "HR", "HT", "HU", "ID", "IE", "IL", "IN", "IS", "IT", "JM", "JO", "JP", "KE", "KG", "KH", "KI", "KM", "KN", "KR", "KW", "KZ", "LA", "LB", "LC", "LI", "LK", "LR", "LS", "LT", "LU", "LV", "MA", "MC", "MD", "ME", "MG", "MH", "MK", "ML", "MN", "MO", "MR", "MT", "MU", "MV", "MW", "MX", "MY", "MZ", "NA", "NE", "NG", "NI", "NL", "NO", "NP", "NR", "NZ", "OM", "PA", "PE", "PG", "PH", "PK", "PL", "PS", "PT", "PW", "PY", "QA", "RO", "RS", "RU", "RW", "SA", "SB", "SC", "SE", "SG", "SI", "SK", "SL", "SM", "SN", "SR", "ST", "SV", "SZ", "TD", "TG", "TH", "TL", "TN", "TO", "TR", "TT", "TV", "TW", "TZ", "UA", "UG", "UY", "UZ", "VC", "VN", "VU", "WS", "XK", "ZA", "ZM", "ZW" ],
            "external_urls" : {
              "spotify" : "https://open.spotify.com/album/5jYdgzyT71V5j4MQm327gF"
            },
            "href" : "https://api.spotify.com/v1/albums/5jYdgzyT71V5j4MQm327gF",
            "id" : "5jYdgzyT71V5j4MQm327gF",
            "images" : [ {
              "height" : 640,
              "url" : "https://i.scdn.co/image/ab67616d0000b273cee9bfe3dceb9b95d344b1f5",
              "width" : 640
            }, {
              "height" : 300,
              "url" : "https://i.scdn.co/image/ab67616d00001e02cee9bfe3dceb9b95d344b1f5",
              "width" : 300
            }, {
              "height" : 64,
              "url" : "https://i.scdn.co/image/ab67616d00004851cee9bfe3dceb9b95d344b1f5",
              "width" : 64
            } ],
            "name" : "Director's Cut",
            "release_date" : "2011-05-16",
            "release_date_precision" : "day",
            "total_tracks" : 11,
            "type" : "album",
            "uri" : "spotify:album:5jYdgzyT71V5j4MQm327gF"
          }, {
            "album_group" : "album",
            "album_type" : "album",
            "artists" : [ {
              "external_urls" : {
                "spotify" : "https://open.spotify.com/artist/1aSxMhuvixZ8h9dK9jIDwL"
              },
              "href" : "https://api.spotify.com/v1/artists/1aSxMhuvixZ8h9dK9jIDwL",
              "id" : "1aSxMhuvixZ8h9dK9jIDwL",
              "name" : "Kate Bush",
              "type" : "artist",
              "uri" : "spotify:artist:1aSxMhuvixZ8h9dK9jIDwL"
            } ],
            "available_markets" : [ "AD", "AE", "AG", "AL", "AM", "AO", "AR", "AT", "AU", "AZ", "BA", "BB", "BD", "BE", "BF", "BG", "BH", "BI", "BJ", "BN", "BO", "BR", "BS", "BT", "BW", "BY", "BZ", "CA", "CH", "CI", "CL", "CM", "CO", "CR", "CV", "CW", "CY", "CZ", "DE", "DJ", "DK", "DM", "DO", "DZ", "EC", "EE", "EG", "ES", "FI", "FJ", "FM", "FR", "GA", "GB", "GD", "GE", "GH", "GM", "GN", "GQ", "GR", "GT", "GW", "GY", "HK", "HN", "HR", "HT", "HU", "ID", "IE", "IL", "IN", "IS", "IT", "JM", "JO", "JP", "KE", "KG", "KH", "KI", "KM", "KN", "KR", "KW", "KZ", "LA", "LB", "LC", "LI", "LK", "LR", "LS", "LT", "LU", "LV", "MA", "MC", "MD", "ME", "MG", "MH", "MK", "ML", "MN", "MO", "MR", "MT", "MU", "MV", "MW", "MX", "MY", "MZ", "NA", "NE", "NG", "NI", "NL", "NO", "NP", "NR", "NZ", "OM", "PA", "PE", "PG", "PH", "PK", "PL", "PS", "PT", "PW", "PY", "QA", "RO", "RS", "RU", "RW", "SA", "SB", "SC", "SE", "SG", "SI", "SK", "SL", "SM", "SN", "SR", "ST", "SV", "SZ", "TD", "TG", "TH", "TL", "TN", "TO", "TR", "TT", "TV", "TW", "TZ", "UA", "UG", "US", "UY", "UZ", "VC", "VN", "VU", "WS", "XK", "ZA", "ZM", "ZW" ],
            "external_urls" : {
              "spotify" : "https://open.spotify.com/album/2pQr45goebKERx0ntdhsIA"
            },
            "href" : "https://api.spotify.com/v1/albums/2pQr45goebKERx0ntdhsIA",
            "id" : "2pQr45goebKERx0ntdhsIA",
            "images" : [ {
              "height" : 640,
              "url" : "https://i.scdn.co/image/ab67616d0000b27397e2adfc615470adb686ad35",
              "width" : 640
            }, {
              "height" : 300,
              "url" : "https://i.scdn.co/image/ab67616d00001e0297e2adfc615470adb686ad35",
              "width" : 300
            }, {
              "height" : 64,
              "url" : "https://i.scdn.co/image/ab67616d0000485197e2adfc615470adb686ad35",
              "width" : 64
            } ],
            "name" : "Director's Cut (2018 Remaster)",
            "release_date" : "2011-05-16",
            "release_date_precision" : "day",
            "total_tracks" : 11,
            "type" : "album",
            "uri" : "spotify:album:2pQr45goebKERx0ntdhsIA"
          }, {
            "album_group" : "album",
            "album_type" : "album",
            "artists" : [ {
              "external_urls" : {
                "spotify" : "https://open.spotify.com/artist/1aSxMhuvixZ8h9dK9jIDwL"
              },
              "href" : "https://api.spotify.com/v1/artists/1aSxMhuvixZ8h9dK9jIDwL",
              "id" : "1aSxMhuvixZ8h9dK9jIDwL",
              "name" : "Kate Bush",
              "type" : "artist",
              "uri" : "spotify:artist:1aSxMhuvixZ8h9dK9jIDwL"
            } ],
            "available_markets" : [ "AD", "AE", "AG", "AL", "AM", "AO", "AR", "AT", "AU", "AZ", "BA", "BB", "BD", "BE", "BF", "BG", "BH", "BI", "BJ", "BN", "BO", "BR", "BS", "BT", "BW", "BY", "BZ", "CA", "CH", "CI", "CL", "CM", "CO", "CR", "CV", "CW", "CY", "CZ", "DE", "DJ", "DK", "DM", "DO", "DZ", "EC", "EE", "EG", "ES", "FI", "FJ", "FM", "FR", "GA", "GB", "GD", "GE", "GH", "GM", "GN", "GQ", "GR", "GT", "GW", "GY", "HK", "HN", "HR", "HT", "HU", "ID", "IE", "IL", "IN", "IS", "IT", "JM", "JO", "JP", "KE", "KG", "KH", "KI", "KM", "KN", "KR", "KW", "KZ", "LA", "LB", "LC", "LI", "LK", "LR", "LS", "LT", "LU", "LV", "MA", "MC", "MD", "ME", "MG", "MH", "MK", "ML", "MN", "MO", "MR", "MT", "MU", "MV", "MW", "MX", "MY", "MZ", "NA", "NE", "NG", "NI", "NL", "NO", "NP", "NR", "NZ", "OM", "PA", "PE", "PG", "PH", "PK", "PL", "PS", "PT", "PW", "PY", "QA", "RO", "RS", "RU", "RW", "SA", "SB", "SC", "SE", "SG", "SI", "SK", "SL", "SM", "SN", "SR", "ST", "SV", "SZ", "TD", "TG", "TH", "TL", "TN", "TO", "TR", "TT", "TV", "TW", "TZ", "UA", "UG", "US", "UY", "UZ", "VC", "VN", "VU", "WS", "XK", "ZA", "ZM", "ZW" ],
            "external_urls" : {
              "spotify" : "https://open.spotify.com/album/0xo3ZL0B9982pr08stcNlt"
            },
            "href" : "https://api.spotify.com/v1/albums/0xo3ZL0B9982pr08stcNlt",
            "id" : "0xo3ZL0B9982pr08stcNlt",
            "images" : [ {
              "height" : 640,
              "url" : "https://i.scdn.co/image/ab67616d0000b273639b5d6334f08ce04de0fc03",
              "width" : 640
            }, {
              "height" : 300,
              "url" : "https://i.scdn.co/image/ab67616d00001e02639b5d6334f08ce04de0fc03",
              "width" : 300
            }, {
              "height" : 64,
              "url" : "https://i.scdn.co/image/ab67616d00004851639b5d6334f08ce04de0fc03",
              "width" : 64
            } ],
            "name" : "Aerial (2018 Remaster)",
            "release_date" : "2005-11-07",
            "release_date_precision" : "day",
            "total_tracks" : 16,
            "type" : "album",
            "uri" : "spotify:album:0xo3ZL0B9982pr08stcNlt"
          }, {
            "album_group" : "album",
            "album_type" : "album",
            "artists" : [ {
              "external_urls" : {
                "spotify" : "https://open.spotify.com/artist/1aSxMhuvixZ8h9dK9jIDwL"
              },
              "href" : "https://api.spotify.com/v1/artists/1aSxMhuvixZ8h9dK9jIDwL",
              "id" : "1aSxMhuvixZ8h9dK9jIDwL",
              "name" : "Kate Bush",
              "type" : "artist",
              "uri" : "spotify:artist:1aSxMhuvixZ8h9dK9jIDwL"
            } ],
            "available_markets" : [ "US" ],
            "external_urls" : {
              "spotify" : "https://open.spotify.com/album/5hAtR86rztwrKh83zUokGu"
            },
            "href" : "https://api.spotify.com/v1/albums/5hAtR86rztwrKh83zUokGu",
            "id" : "5hAtR86rztwrKh83zUokGu",
            "images" : [ {
              "height" : 640,
              "url" : "https://i.scdn.co/image/ab67616d0000b273e6d5420e86091c2ffa2c3484",
              "width" : 640
            }, {
              "height" : 300,
              "url" : "https://i.scdn.co/image/ab67616d00001e02e6d5420e86091c2ffa2c3484",
              "width" : 300
            }, {
              "height" : 64,
              "url" : "https://i.scdn.co/image/ab67616d00004851e6d5420e86091c2ffa2c3484",
              "width" : 64
            } ],
            "name" : "Aerial",
            "release_date" : "2005-11-07",
            "release_date_precision" : "day",
            "total_tracks" : 16,
            "type" : "album",
            "uri" : "spotify:album:5hAtR86rztwrKh83zUokGu"
          } ],
          "limit" : 5,
          "next" : "https://api.spotify.com/v1/artists/1aSxMhuvixZ8h9dK9jIDwL/albums?offset=10&limit=5&include_groups=album",
          "offset" : 5,
          "previous" : "https://api.spotify.com/v1/artists/1aSxMhuvixZ8h9dK9jIDwL/albums?offset=0&limit=5&include_groups=album",
          "total" : 28
        }
  recorded_at: Wed, 14 Jul 2021 10:44:45 GMT
- request:
    method: get
    uri: https://api.spotify.com/v1/artists/1aSxMhuvixZ8h9dK9jIDwL
    body:
      encoding: US-ASCII
      string: ''
    headers:
      Accept:
      - "*/*"
      User-Agent:
      - rest-client/2.1.0 (linux x86_64) ruby/3.0.1p64
      Authorization:
      - Bearer <SPOTIFY_TOKEN>
      Accept-Encoding:
      - gzip;q=1.0,deflate;q=0.6,identity;q=0.3
      Host:
      - api.spotify.com
  response:
    status:
      code: 200
      message: OK
    headers:
      Content-Type:
      - application/json; charset=utf-8
      Cache-Control:
      - public, max-age=84269
      X-Robots-Tag:
      - noindex, nofollow
      Access-Control-Allow-Origin:
      - "*"
      Access-Control-Allow-Headers:
      - Accept, App-Platform, Authorization, Content-Type, Origin, Retry-After, Spotify-App-Version,
        X-Cloud-Trace-Context, client-token, content-access-token
      Access-Control-Allow-Methods:
      - GET, POST, OPTIONS, PUT, DELETE, PATCH
      Access-Control-Allow-Credentials:
      - 'true'
      Access-Control-Max-Age:
      - '604800'
      Strict-Transport-Security:
      - max-age=31536000
      X-Content-Type-Options:
      - nosniff
      Date:
      - Wed, 14 Jul 2021 10:44:45 GMT
      Server:
      - envoy
      Via:
      - HTTP/2 edgeproxy, 1.1 google
      Alt-Svc:
      - clear
      Transfer-Encoding:
      - chunked
    body:
      encoding: ASCII-8BIT
      string: |-
        {
          "external_urls" : {
            "spotify" : "https://open.spotify.com/artist/1aSxMhuvixZ8h9dK9jIDwL"
          },
          "followers" : {
            "href" : null,
            "total" : 787296
          },
          "genres" : [ "art pop", "art rock", "baroque pop", "new wave pop", "permanent wave", "piano rock", "singer-songwriter" ],
          "href" : "https://api.spotify.com/v1/artists/1aSxMhuvixZ8h9dK9jIDwL",
          "id" : "1aSxMhuvixZ8h9dK9jIDwL",
          "images" : [ {
            "height" : 930,
            "url" : "https://i.scdn.co/image/3b2db6840f31b367518f97b1a5d6bea653ea56ae",
            "width" : 620
          }, {
            "height" : 300,
            "url" : "https://i.scdn.co/image/b8e74146831af09bd16bf5b7c77cbe92e86355db",
            "width" : 200
          }, {
            "height" : 96,
            "url" : "https://i.scdn.co/image/08ec46ff35f3c5b2085ac0d3d3f8ba0f77086a8f",
            "width" : 64
          } ],
          "name" : "Kate Bush",
          "popularity" : 69,
          "type" : "artist",
          "uri" : "spotify:artist:1aSxMhuvixZ8h9dK9jIDwL"
        }
  recorded_at: Wed, 14 Jul 2021 10:44:45 GMT
recorded_with: VCR 6.0.0
