---
http_interactions:
- request:
    method: get
    uri: https://api.spotify.com/v1/search?limit=5&offset=5&q=a&type=album
    body:
      encoding: US-ASCII
      string: ''
    headers:
      Accept:
      - "*/*"
      User-Agent:
      - rest-client/2.1.0 (linux x86_64) ruby/3.0.0p0
      Authorization:
      - Bearer <SPOTIFY_TOKEN>
      Accept-Encoding:
      - gzip;q=1.0,deflate;q=0.6,identity;q=0.3
      Host:
      - api.spotify.com
  response:
    status:
      code: 200
      message: OK
    headers:
      Content-Type:
      - application/json; charset=utf-8
      Cache-Control:
      - public, max-age=7200
      X-Robots-Tag:
      - noindex, nofollow
      Access-Control-Allow-Origin:
      - "*"
      Access-Control-Allow-Headers:
      - Accept, App-Platform, Authorization, Content-Type, Origin, Retry-After, Spotify-App-Version,
        X-Cloud-Trace-Context, client-token, content-access-token
      Access-Control-Allow-Methods:
      - GET, POST, OPTIONS, PUT, DELETE, PATCH
      Access-Control-Allow-Credentials:
      - 'true'
      Access-Control-Max-Age:
      - '604800'
      Strict-Transport-Security:
      - max-age=31536000
      X-Content-Type-Options:
      - nosniff
      Date:
      - Sat, 30 Jan 2021 07:14:24 GMT
      Server:
      - envoy
      Via:
      - HTTP/2 edgeproxy, 1.1 google
      Alt-Svc:
      - clear
      Transfer-Encoding:
      - chunked
    body:
      encoding: ASCII-8BIT
      string: |-
        {
          "albums" : {
            "href" : "https://api.spotify.com/v1/search?query=a&type=album&offset=5&limit=5",
            "items" : [ {
              "album_type" : "album",
              "artists" : [ {
                "external_urls" : {
                  "spotify" : "https://open.spotify.com/artist/6LuN9FCkKOj5PcnpouEgny"
                },
                "href" : "https://api.spotify.com/v1/artists/6LuN9FCkKOj5PcnpouEgny",
                "id" : "6LuN9FCkKOj5PcnpouEgny",
                "name" : "Khalid",
                "type" : "artist",
                "uri" : "spotify:artist:6LuN9FCkKOj5PcnpouEgny"
              } ],
              "available_markets" : [ "AD", "AE", "AL", "AR", "AT", "AU", "BA", "BE", "BG", "BH", "BO", "BR", "BY", "CA", "CH", "CL", "CO", "CR", "CY", "CZ", "DE", "DK", "DO", "DZ", "EC", "EE", "EG", "ES", "FI", "FR", "GB", "GR", "GT", "HK", "HN", "HR", "HU", "ID", "IE", "IL", "IN", "IS", "IT", "JO", "JP", "KW", "KZ", "LB", "LI", "LT", "LU", "LV", "MA", "MC", "MD", "ME", "MK", "MT", "MX", "MY", "NI", "NL", "NO", "NZ", "OM", "PA", "PE", "PH", "PL", "PS", "PT", "PY", "QA", "RO", "RS", "RU", "SA", "SE", "SG", "SI", "SK", "SV", "TH", "TN", "TR", "TW", "UA", "US", "UY", "VN", "XK", "ZA" ],
              "external_urls" : {
                "spotify" : "https://open.spotify.com/album/6kf46HbnYCZzP6rjvQHYzg"
              },
              "href" : "https://api.spotify.com/v1/albums/6kf46HbnYCZzP6rjvQHYzg",
              "id" : "6kf46HbnYCZzP6rjvQHYzg",
              "images" : [ {
                "height" : 640,
                "url" : "https://i.scdn.co/image/ab67616d0000b273988ede5e1276e758b5f9e577",
                "width" : 640
              }, {
                "height" : 300,
                "url" : "https://i.scdn.co/image/ab67616d00001e02988ede5e1276e758b5f9e577",
                "width" : 300
              }, {
                "height" : 64,
                "url" : "https://i.scdn.co/image/ab67616d00004851988ede5e1276e758b5f9e577",
                "width" : 64
              } ],
              "name" : "American Teen",
              "release_date" : "2017-04-27",
              "release_date_precision" : "day",
              "total_tracks" : 15,
              "type" : "album",
              "uri" : "spotify:album:6kf46HbnYCZzP6rjvQHYzg"
            }, {
              "album_type" : "album",
              "artists" : [ {
                "external_urls" : {
                  "spotify" : "https://open.spotify.com/artist/0eDvMgVFoNV3TpwtrVCoTj"
                },
                "href" : "https://api.spotify.com/v1/artists/0eDvMgVFoNV3TpwtrVCoTj",
                "id" : "0eDvMgVFoNV3TpwtrVCoTj",
                "name" : "Pop Smoke",
                "type" : "artist",
                "uri" : "spotify:artist:0eDvMgVFoNV3TpwtrVCoTj"
              } ],
              "available_markets" : [ "AD", "AE", "AL", "AR", "AT", "AU", "BA", "BE", "BG", "BH", "BO", "BR", "BY", "CA", "CH", "CL", "CO", "CR", "CY", "CZ", "DE", "DK", "DO", "DZ", "EC", "EE", "EG", "ES", "FI", "FR", "GB", "GR", "GT", "HK", "HN", "HR", "HU", "ID", "IE", "IL", "IN", "IS", "IT", "JO", "JP", "KW", "KZ", "LB", "LI", "LT", "LU", "LV", "MA", "MC", "MD", "ME", "MK", "MT", "MX", "MY", "NI", "NL", "NO", "NZ", "OM", "PA", "PE", "PH", "PL", "PS", "PT", "PY", "QA", "RO", "RS", "RU", "SA", "SE", "SG", "SI", "SK", "SV", "TH", "TN", "TR", "TW", "UA", "US", "UY", "VN", "XK", "ZA" ],
              "external_urls" : {
                "spotify" : "https://open.spotify.com/album/7e7t0MCrNDcJZsPwUKjmOc"
              },
              "href" : "https://api.spotify.com/v1/albums/7e7t0MCrNDcJZsPwUKjmOc",
              "id" : "7e7t0MCrNDcJZsPwUKjmOc",
              "images" : [ {
                "height" : 640,
                "url" : "https://i.scdn.co/image/ab67616d0000b27377ada0863603903f57b34369",
                "width" : 640
              }, {
                "height" : 300,
                "url" : "https://i.scdn.co/image/ab67616d00001e0277ada0863603903f57b34369",
                "width" : 300
              }, {
                "height" : 64,
                "url" : "https://i.scdn.co/image/ab67616d0000485177ada0863603903f57b34369",
                "width" : 64
              } ],
              "name" : "Shoot For The Stars Aim For The Moon",
              "release_date" : "2020-07-03",
              "release_date_precision" : "day",
              "total_tracks" : 19,
              "type" : "album",
              "uri" : "spotify:album:7e7t0MCrNDcJZsPwUKjmOc"
            }, {
              "album_type" : "album",
              "artists" : [ {
                "external_urls" : {
                  "spotify" : "https://open.spotify.com/artist/5pKCCKE2ajJHZ9KAiaK11H"
                },
                "href" : "https://api.spotify.com/v1/artists/5pKCCKE2ajJHZ9KAiaK11H",
                "id" : "5pKCCKE2ajJHZ9KAiaK11H",
                "name" : "Rihanna",
                "type" : "artist",
                "uri" : "spotify:artist:5pKCCKE2ajJHZ9KAiaK11H"
              } ],
              "available_markets" : [ "AD", "AE", "AL", "AR", "AT", "AU", "BA", "BE", "BG", "BH", "BO", "BR", "BY", "CA", "CH", "CL", "CO", "CR", "CY", "CZ", "DE", "DK", "DO", "DZ", "EC", "EE", "EG", "ES", "FI", "FR", "GB", "GR", "GT", "HK", "HN", "HR", "HU", "ID", "IE", "IL", "IN", "IS", "IT", "JO", "JP", "KW", "KZ", "LB", "LI", "LT", "LU", "LV", "MA", "MC", "MD", "ME", "MK", "MT", "MX", "MY", "NI", "NL", "NO", "NZ", "OM", "PA", "PE", "PH", "PL", "PS", "PT", "PY", "QA", "RO", "RS", "RU", "SA", "SE", "SG", "SI", "SK", "SV", "TH", "TN", "TR", "TW", "UA", "US", "UY", "VN", "XK", "ZA" ],
              "external_urls" : {
                "spotify" : "https://open.spotify.com/album/4UlGauD7ROb3YbVOFMgW5u"
              },
              "href" : "https://api.spotify.com/v1/albums/4UlGauD7ROb3YbVOFMgW5u",
              "id" : "4UlGauD7ROb3YbVOFMgW5u",
              "images" : [ {
                "height" : 640,
                "url" : "https://i.scdn.co/image/ab67616d0000b27333c6b920eabcf4c00d7a1093",
                "width" : 640
              }, {
                "height" : 300,
                "url" : "https://i.scdn.co/image/ab67616d00001e0233c6b920eabcf4c00d7a1093",
                "width" : 300
              }, {
                "height" : 64,
                "url" : "https://i.scdn.co/image/ab67616d0000485133c6b920eabcf4c00d7a1093",
                "width" : 64
              } ],
              "name" : "ANTI (Deluxe)",
              "release_date" : "2016-01-28",
              "release_date_precision" : "day",
              "total_tracks" : 16,
              "type" : "album",
              "uri" : "spotify:album:4UlGauD7ROb3YbVOFMgW5u"
            }, {
              "album_type" : "album",
              "artists" : [ {
                "external_urls" : {
                  "spotify" : "https://open.spotify.com/artist/66CXWjxzNUsdJxJ2JdwvnR"
                },
                "href" : "https://api.spotify.com/v1/artists/66CXWjxzNUsdJxJ2JdwvnR",
                "id" : "66CXWjxzNUsdJxJ2JdwvnR",
                "name" : "Ariana Grande",
                "type" : "artist",
                "uri" : "spotify:artist:66CXWjxzNUsdJxJ2JdwvnR"
              } ],
              "available_markets" : [ "AD", "AE", "AL", "AR", "AT", "AU", "BA", "BE", "BG", "BH", "BO", "BR", "BY", "CA", "CH", "CL", "CO", "CR", "CY", "CZ", "DE", "DK", "DO", "DZ", "EC", "EE", "EG", "ES", "FI", "FR", "GB", "GR", "GT", "HK", "HN", "HR", "HU", "ID", "IE", "IL", "IN", "IS", "IT", "JO", "JP", "KW", "KZ", "LB", "LI", "LT", "LU", "LV", "MA", "MC", "MD", "ME", "MK", "MT", "MX", "MY", "NI", "NL", "NO", "NZ", "OM", "PA", "PE", "PH", "PL", "PS", "PT", "PY", "QA", "RO", "RS", "RU", "SA", "SE", "SG", "SI", "SK", "SV", "TH", "TN", "TR", "TW", "UA", "US", "UY", "VN", "XK", "ZA" ],
              "external_urls" : {
                "spotify" : "https://open.spotify.com/album/3euz4vS7ezKGnNSwgyvKcd"
              },
              "href" : "https://api.spotify.com/v1/albums/3euz4vS7ezKGnNSwgyvKcd",
              "id" : "3euz4vS7ezKGnNSwgyvKcd",
              "images" : [ {
                "height" : 640,
                "url" : "https://i.scdn.co/image/ab67616d0000b2735ef878a782c987d38d82b605",
                "width" : 640
              }, {
                "height" : 300,
                "url" : "https://i.scdn.co/image/ab67616d00001e025ef878a782c987d38d82b605",
                "width" : 300
              }, {
                "height" : 64,
                "url" : "https://i.scdn.co/image/ab67616d000048515ef878a782c987d38d82b605",
                "width" : 64
              } ],
              "name" : "Positions",
              "release_date" : "2020-10-30",
              "release_date_precision" : "day",
              "total_tracks" : 14,
              "type" : "album",
              "uri" : "spotify:album:3euz4vS7ezKGnNSwgyvKcd"
            }, {
              "album_type" : "single",
              "artists" : [ {
                "external_urls" : {
                  "spotify" : "https://open.spotify.com/artist/1uNFoZAHBGtllmzznpCI3s"
                },
                "href" : "https://api.spotify.com/v1/artists/1uNFoZAHBGtllmzznpCI3s",
                "id" : "1uNFoZAHBGtllmzznpCI3s",
                "name" : "Justin Bieber",
                "type" : "artist",
                "uri" : "spotify:artist:1uNFoZAHBGtllmzznpCI3s"
              } ],
              "available_markets" : [ "AD", "AE", "AL", "AR", "AT", "AU", "BA", "BE", "BG", "BH", "BO", "BR", "BY", "CA", "CH", "CL", "CO", "CR", "CY", "CZ", "DE", "DK", "DO", "DZ", "EC", "EE", "EG", "ES", "FI", "FR", "GB", "GR", "GT", "HK", "HN", "HR", "HU", "ID", "IE", "IL", "IN", "IS", "IT", "JO", "JP", "KW", "KZ", "LB", "LI", "LT", "LU", "LV", "MA", "MC", "MD", "ME", "MK", "MT", "MX", "MY", "NI", "NL", "NO", "NZ", "OM", "PA", "PE", "PH", "PL", "PS", "PT", "PY", "QA", "RO", "RS", "RU", "SA", "SE", "SG", "SI", "SK", "SV", "TH", "TN", "TR", "TW", "UA", "US", "UY", "VN", "XK", "ZA" ],
              "external_urls" : {
                "spotify" : "https://open.spotify.com/album/51kijm0sjZz0yOa3kVBPUU"
              },
              "href" : "https://api.spotify.com/v1/albums/51kijm0sjZz0yOa3kVBPUU",
              "id" : "51kijm0sjZz0yOa3kVBPUU",
              "images" : [ {
                "height" : 640,
                "url" : "https://i.scdn.co/image/ab67616d0000b2734b02db5cefb177ff97346cf2",
                "width" : 640
              }, {
                "height" : 300,
                "url" : "https://i.scdn.co/image/ab67616d00001e024b02db5cefb177ff97346cf2",
                "width" : 300
              }, {
                "height" : 64,
                "url" : "https://i.scdn.co/image/ab67616d000048514b02db5cefb177ff97346cf2",
                "width" : 64
              } ],
              "name" : "Anyone",
              "release_date" : "2021-01-01",
              "release_date_precision" : "day",
              "total_tracks" : 1,
              "type" : "album",
              "uri" : "spotify:album:51kijm0sjZz0yOa3kVBPUU"
            } ],
            "limit" : 5,
            "next" : "https://api.spotify.com/v1/search?query=a&type=album&offset=10&limit=5",
            "offset" : 5,
            "previous" : "https://api.spotify.com/v1/search?query=a&type=album&offset=0&limit=5",
            "total" : 10007
          }
        }
  recorded_at: Sat, 30 Jan 2021 07:14:24 GMT
recorded_with: VCR 6.0.0
